<?xml version="1.0" encoding="iso-8859-1"?>
<!-- Generator: Adobe Illustrator 19.0.0, SVG Export Plug-In . SVG Version: 6.00 Build 0)  -->
<svg version="1.1" id="Layer_1" xmlns="http://www.w3.org/2000/svg" xmlns:xlink="http://www.w3.org/1999/xlink" x="0px" y="0px"
	 viewBox="0 0 512 512" style="enable-background:new 0 0 512 512;" xml:space="preserve">
<g>
	<g>
		<path d="M391.111,0c-42.28,0-77.358,30.756-84.132,71.111h102.026l-8.181,98.99c42.551-4.824,75.62-40.924,75.62-84.767
			C476.444,38.205,438.239,0,391.111,0z"/>
	</g>
</g>
<g>
	<g>
		<polygon points="78.222,113.778 82.924,170.667 357.965,170.667 362.667,113.778 		"/>
	</g>
</g>
<g>
	<g>
		<polygon points="86.45,213.333 106.667,412.444 334.222,412.444 354.439,213.333 		"/>
	</g>
</g>
<g>
	<g>
		<polygon points="35.556,455.111 64,512 376.889,512 405.333,455.111 		"/>
	</g>
</g>
<g>
</g>
<g>
</g>
<g>
</g>
<g>
</g>
<g>
</g>
<g>
</g>
<g>
</g>
<g>
</g>
<g>
</g>
<g>
</g>
<g>
</g>
<g>
</g>
<g>
</g>
<g>
</g>
<g>
</g>
</svg>
